<svg width="25" height="25" viewBox="0 0 25 25" fill="none" xmlns="http://www.w3.org/2000/svg">
<path d="M12.5 1.56249C12.1063 1.56249 11.7219 1.70624 11.4258 2.00233L9.22813 4.22342C9.10938 4.28749 9.00938 4.37967 8.93594 4.49217L2.00157 11.4258C1.71714 11.7109 1.5574 12.0972 1.5574 12.5C1.5574 12.9027 1.71714 13.2891 2.00157 13.5742L11.4258 22.9984C11.7117 23.2813 12.0977 23.44 12.5 23.44C12.9023 23.44 13.2883 23.2813 13.5742 22.9984L22.9984 13.5742C23.2829 13.2891 23.4426 12.9027 23.4426 12.5C23.4426 12.0972 23.2829 11.7109 22.9984 11.4258L13.5734 2.00155C13.4325 1.86089 13.2651 1.74964 13.0808 1.67426C12.8965 1.59889 12.6991 1.56089 12.5 1.56249ZM12.5 3.14921L21.8508 12.5L12.5 21.8508L3.14922 12.5L9.61954 6.03046L10.9867 7.39764C10.9516 7.53306 10.9351 7.67262 10.9375 7.81249C10.9375 8.38905 11.2516 8.88358 11.7188 9.15546V15.8445C11.2516 16.1164 10.9375 16.6101 10.9375 17.1875C10.9375 17.6019 11.1021 17.9993 11.3952 18.2923C11.6882 18.5854 12.0856 18.75 12.5 18.75C12.9144 18.75 13.3118 18.5854 13.6049 18.2923C13.8979 17.9993 14.0625 17.6019 14.0625 17.1875C14.0625 16.6109 13.7484 16.1164 13.2813 15.8445V9.71717L15.6742 12.1094C15.6144 12.3403 15.6083 12.5819 15.6564 12.8155C15.7045 13.0492 15.8055 13.2687 15.9516 13.4573C16.0977 13.6459 16.285 13.7984 16.4993 13.9034C16.7135 14.0083 16.949 14.0627 17.1875 14.0625C18.05 14.0625 18.7492 13.3633 18.7492 12.5C18.7496 12.2614 18.6952 12.0259 18.5904 11.8115C18.4855 11.5972 18.3329 11.4097 18.1443 11.2635C17.9557 11.1173 17.7362 11.0163 17.5024 10.9682C17.2687 10.92 17.0271 10.9261 16.7961 10.9859L14.0133 8.20311C14.0731 7.97218 14.0792 7.73061 14.0311 7.49696C13.983 7.2633 13.882 7.04377 13.7359 6.85519C13.5898 6.66662 13.4025 6.51403 13.1882 6.40912C12.974 6.30421 12.7386 6.24977 12.5 6.24999C12.3604 6.24763 12.2211 6.26419 12.0859 6.29921L10.7188 4.93202L12.5 3.14921Z" fill="white"/>
</svg>
